## Inte4rface: 1
## Title: MailSpamBlocker
## Version: .5b
## Notes: n/a
## Author: clluthu - Felstriker
## email: aupaaus+wow@gmail.com
## URL: 
## SavedVariables: 
## DefaultState: enabled
## OptionalDeps: 

## libs

MailSpamBlocker.lua
